<svg xmlns="http://www.w3.org/2000/svg" xmlns:xlink="http://www.w3.org/1999/xlink"
     viewBox="0 0 41.46 59.56">
    <defs>
        <style>.cls-1 {
            isolation: isolate;
            }

            .cls-2 {
            fill: #2741c9;
            }

            .cls-3 {
            fill: #2c47df;
            }

            .cls-4 {
            fill: #2741ca;
            }

            .cls-5 {
            fill: url(#linear-gradient);
            }</style>
        <linearGradient id="linear-gradient" x1="24.63" y1="2.51" x2="11.51" y2="54.26"
                        gradientUnits="userSpaceOnUse">
            <stop offset="0.01" stop-color="#496cf4"/>
            <stop offset="1" stop-color="#314ef4"/>
        </linearGradient>
    </defs>
    <g>
        <g>
            <g class="cls-1">
                <polygon class="cls-2"
                         points="9.85 27.32 16.61 27.13 36.92 54.23 30.16 54.42 9.85 27.32"/>
                <polygon class="cls-3"
                         points="30.16 54.42 36.92 54.23 31.96 59.37 25.2 59.56 30.16 54.42"/>
                <polygon class="cls-3"
                         points="34.7 6.58 41.46 6.38 16.61 27.13 9.85 27.32 34.7 6.58"/>
                <polygon class="cls-4" points="30.83 0.19 37.59 0 41.46 6.38 34.7 6.58 30.83 0.19"/>
                <polygon class="cls-5"
                         points="30.83 0.19 34.7 6.58 9.85 27.32 30.16 54.42 25.2 59.56 0 25.94 30.83 0.19"/>
            </g>
        </g>
    </g>
</svg>