<svg id="square" xmlns="http://www.w3.org/2000/svg" viewBox="0 0 150 150">
    <g>
        <g>
            <path fill="#bbd"
                  d="M6.094 74.65a3.05 3.05 0 0 1-3.048 3.047A3.05 3.05 0 0 1-.001 74.65a3.05 3.05 0 0 1 3.047-3.048 3.051 3.051 0 0 1 3.048 3.048zm0 35.802a3.051 3.051 0 0 1-3.048 3.047 3.05 3.05 0 0 1-3.047-3.047 3.05 3.05 0 0 1 3.047-3.048 3.051 3.051 0 0 1 3.048 3.048zm0-107.405a3.051 3.051 0 0 1-3.048 3.047A3.05 3.05 0 0 1-.001 3.047 3.051 3.051 0 0 1 3.046-.001a3.051 3.051 0 0 1 3.048 3.048zm0 35.801a3.051 3.051 0 0 1-3.048 3.048 3.05 3.05 0 0 1-3.047-3.048 3.05 3.05 0 0 1 3.047-3.047 3.05 3.05 0 0 1 3.048 3.047zM41.895 74.65a3.05 3.05 0 0 1-3.047 3.047 3.05 3.05 0 0 1-3.047-3.047 3.05 3.05 0 0 1 3.047-3.048 3.05 3.05 0 0 1 3.047 3.048zm0 35.802a3.05 3.05 0 0 1-3.047 3.047 3.051 3.051 0 0 1-3.047-3.047 3.051 3.051 0 0 1 3.047-3.048 3.05 3.05 0 0 1 3.047 3.048zm0-107.405a3.05 3.05 0 0 1-3.047 3.047 3.051 3.051 0 0 1-3.047-3.047 3.051 3.051 0 0 1 3.047-3.048 3.051 3.051 0 0 1 3.047 3.048zm0 35.801a3.05 3.05 0 0 1-3.047 3.048 3.05 3.05 0 0 1-3.047-3.048 3.05 3.05 0 0 1 3.047-3.047 3.05 3.05 0 0 1 3.047 3.047zM77.697 74.65a3.05 3.05 0 0 1-3.047 3.047 3.051 3.051 0 0 1-3.048-3.047 3.052 3.052 0 0 1 3.048-3.048 3.05 3.05 0 0 1 3.047 3.048zm0 35.802a3.05 3.05 0 0 1-3.047 3.047 3.052 3.052 0 0 1-3.048-3.047 3.052 3.052 0 0 1 3.048-3.048 3.05 3.05 0 0 1 3.047 3.048zm0-107.405a3.05 3.05 0 0 1-3.047 3.047 3.052 3.052 0 0 1-3.048-3.047A3.052 3.052 0 0 1 74.65-.001a3.051 3.051 0 0 1 3.047 3.048zm0 35.801a3.05 3.05 0 0 1-3.047 3.048 3.052 3.052 0 0 1-3.048-3.048 3.051 3.051 0 0 1 3.048-3.047 3.05 3.05 0 0 1 3.047 3.047zm35.801 35.802a3.052 3.052 0 0 1-3.048 3.047 3.051 3.051 0 0 1-3.047-3.047 3.051 3.051 0 0 1 3.047-3.048 3.052 3.052 0 0 1 3.048 3.048zm0 35.802a3.052 3.052 0 0 1-3.048 3.047 3.051 3.051 0 0 1-3.047-3.047 3.051 3.051 0 0 1 3.047-3.048 3.052 3.052 0 0 1 3.048 3.048zm0-107.405a3.052 3.052 0 0 1-3.048 3.047 3.052 3.052 0 0 1-3.047-3.047 3.052 3.052 0 0 1 3.047-3.048 3.052 3.052 0 0 1 3.048 3.048zm0 35.801a3.052 3.052 0 0 1-3.048 3.048 3.051 3.051 0 0 1-3.047-3.048 3.051 3.051 0 0 1 3.047-3.047 3.051 3.051 0 0 1 3.048 3.047zM149.5 74.65a3.051 3.051 0 0 1-3.048 3.047 3.05 3.05 0 0 1-3.047-3.047 3.05 3.05 0 0 1 3.047-3.048 3.051 3.051 0 0 1 3.048 3.048zm0 35.802a3.051 3.051 0 0 1-3.048 3.047 3.051 3.051 0 0 1-3.047-3.047 3.051 3.051 0 0 1 3.047-3.048 3.051 3.051 0 0 1 3.048 3.048zm0-107.405a3.051 3.051 0 0 1-3.048 3.047 3.051 3.051 0 0 1-3.047-3.047 3.051 3.051 0 0 1 3.047-3.048 3.051 3.051 0 0 1 3.048 3.048zm0 35.801a3.051 3.051 0 0 1-3.048 3.048 3.05 3.05 0 0 1-3.047-3.048 3.05 3.05 0 0 1 3.047-3.047 3.05 3.05 0 0 1 3.048 3.047zM6.094 146.452a3.05 3.05 0 0 1-3.048 3.047 3.05 3.05 0 0 1-3.047-3.047 3.05 3.05 0 0 1 3.047-3.048 3.051 3.051 0 0 1 3.048 3.048zm35.801 0a3.05 3.05 0 0 1-3.047 3.047 3.05 3.05 0 0 1-3.047-3.047 3.05 3.05 0 0 1 3.047-3.048 3.05 3.05 0 0 1 3.047 3.048zm35.802 0a3.05 3.05 0 0 1-3.047 3.047 3.051 3.051 0 0 1-3.048-3.047 3.052 3.052 0 0 1 3.048-3.048 3.05 3.05 0 0 1 3.047 3.048zm35.801 0a3.051 3.051 0 0 1-3.048 3.047 3.051 3.051 0 0 1-3.047-3.047 3.051 3.051 0 0 1 3.047-3.048 3.052 3.052 0 0 1 3.048 3.048zm36.001 0a3.05 3.05 0 0 1-3.048 3.047 3.05 3.05 0 0 1-3.047-3.047 3.05 3.05 0 0 1 3.047-3.048 3.051 3.051 0 0 1 3.048 3.048z"/>
        </g>
    </g>
</svg>